authorName,pubYear,title,publication,publisher,abstract,URL,pdfURL,citedCount
"['P Dutta', 'A Ganapathi', 'D Molnar']",2005,A Case for DataForge: A SourceForge For Experimental Data,,,"Computer systems research is awash in data, but we do not reap the fullest possible benefit. A variety of data issues, such as proprietary data sets, privacy concerns, uncertain data providence, priority questions, incompatible formats, and simply lost data make it difficult to",https://people.eecs.berkeley.edu/~prabal/pubs/papers/dataforge.pdf,https://people.eecs.berkeley.edu/~prabal/pubs/papers/dataforge.pdf,
"['J Vetter', 'C Chambreau']",2005,"mpip: Lightweight, scalable mpi profiling",,,"Version 3.4.1 13 March 2014 Jeffrey Vetter jsvetter@users.sourceforge.net Chris Chambreau chcham@users.sourceforge.net Contents  Please send your comments, questions, and ideas for enhancements to mpiphelp@lists.sourceforge.net","http://gec.di.uminho.pt/Discip/MInf/cpd1415/PCP/MPI/mpiP_%20Lightweight,%20Scalable%20MPI%20Profiling.pdf","http://gec.di.uminho.pt/Discip/MInf/cpd1415/PCP/MPI/mpiP_%20Lightweight,%20Scalable%20MPI%20Profiling.pdf",
"['N Deshpande', 'KJ Addess', 'WF Bluhm']",2005,The RCSB Protein Data Bank: a redesigned query system and relational database based on the mmCIF schema,,,"Component, Function. Lucene ( jakarta.apache.org/lucene/docs ), Text indexing system. Jazzy ( jazzy.sourceforge.net ), The Java open source spell checker  iText ( sourceforge.net/projects/itext/ ), A Java PDF library to generate documents in the PDF and/or HTML",https://academic.oup.com/nar/article-abstract/33/suppl_1/D233/2505307,https://academic.oup.com/nar/article/33/suppl_1/D233/2505307,
"['G Georgescu', 'V Preoteasa']",2005,Pseudo hoops,,,"CiteSeerX - Document Details (Isaac Councill, Lee Giles, Pradeep Teregowda): Pseudo-hoops are algebraic structures introduced in [1, 2] by B. Bosbach under the name of complementary semigroups. This is a formalization of the paper [4]. Following [4] we prove some properties",http://citeseerx.ist.psu.edu/viewdoc/summary?doi=10.1.1.656.6447,,
"['A Rainer', 'S Gale']",2005,Evaluating the quality and quantity of data on open source software projects,,,"s.gale@mdx.ac.uk Abstract − In this paper, we provide a preliminary evaluation of the quality and quantity of data on open source (OS) projects, provided at the SourceForge.net portal. We have derived a dataset of approximately 50000 projects from SourceForge",http://uhra.herts.ac.uk/handle/2299/2076,https://uhra.herts.ac.uk/bitstream/handle/2299/2076/902200.pdf?sequence=1,
['J Korecki'],2005,"A SourceForge. net Project: tMans, an Agent-based Neural Network Simulator, Repast, and SourceForge CVS",,,"The Agent Based Neural Network Simulator is an object oriented framework designed using agent based simulation concepts. The framework itself was"" initially developed to explore self organizing structures in biologically inspired neural networks"", but can be extended to",https://www3.nd.edu/~nom/Papers/jkorecki-technical.pdf,https://www3.nd.edu/~nom/Papers/jkorecki-technical.pdf,
"['AM Marin', 'LMF Moonen', 'A vanDeursen']",2005,AJHotDraw. SourceForge. Aspect-oriented re-implementation of JHotDraw,,,"htmlabstractAspect oriented programming aims at achieving better modularization for a system's crosscutting concerns in order to improve its key quality attributes, such as evolvability and reusability. Consequently, the adoption of aspect-oriented techniques in",https://www.narcis.nl/publication/RecordID/oai:cwi.nl:14513,,
"['M Ohira', 'N Ohsugi', 'T Ohoka', 'K Matsumoto']",2005,Accelerating cross-project knowledge collaboration using collaborative filtering and social networks,,,"In order to support cross- project knowledge collaboration in F/OSS development, we have been developing tools to collect data of projects and developers at SourceForge, and to visualize the relationship among them using the techniques of collaborative filtering and social",https://dl.acm.org/doi/abs/10.1145/1083142.1083163,https://dl.acm.org/doi/pdf/10.1145/1083142.1083163,
"['SK Huang', 'K Liu']",2005,Mining version histories to verify the learning process of legitimate peripheral participants,,,"We therefore divide developers and modules into groups ac- cording to the revision histories of the open source software repository, for example, sourceforge.net  Our main source of data is sourceforge.net, which provides a full CVS repository archive",https://dl.acm.org/doi/abs/10.1145/1083142.1083158,https://dl.acm.org/doi/pdf/10.1145/1083142.1083158,
"['A Rainer', 'S Gale']",2005,Sampling open source projects from portals: some preliminary investigations,,,"In this paper, we provide a preliminary evaluation of the quality and quantity of data on 50 000 open source (OS) projects hosted at the SourceForge.net portal  In this paper, we evaluate the quality of data stored for open source (OS) projects on the SourceForge.net portal",https://ieeexplore.ieee.org/abstract/document/1509305/,http://uhra.herts.ac.uk/bitstream/handle/2299/2078/902202.pdf%3Bjsessionid%3D32B2460B5CB375A69CA241B408B4E6EB?sequence%3D1,
"['J Xu', 'S Christley', 'G Madey']",2005,The open source software community structure,,,"2004]. In this paper, we identify the community structure for the SourceForge project network. Furthermore, we examine software categories to explore possible reasons for the formation of the community structure  2003, Madey et al. 2004] on SourceForge [SourceForge]",https://pdfs.semanticscholar.org/30be/b7f10d63c9f020e1786345601aadae1499e2.pdf,https://pdfs.semanticscholar.org/30be/b7f10d63c9f020e1786345601aadae1499e2.pdf,
"['P Gärdén', 'R Alm', 'J Häkkinen']",2005,PROTEIOS: an open source proteomics initiative,,,"The Proteomics Standards Initiative (PSI) (http://psidev.sourceforge.net) (Orchard et al., 2003) together with manufacturers of mass spectrometry (MS) equipment have recognized these benefits within MS data and are consequently moving towards standardization",https://academic.oup.com/bioinformatics/article-abstract/21/9/2085/409115,https://academic.oup.com/bioinformatics/article/21/9/2085/409115,
"['J Hattne', 'D Fange', 'J Elf']",2005,Stochastic reaction-diffusion simulation with MesoRD,,,"MesoRD runs on Linux, Mac OS X, NetBSD, Solaris and Windows XP. It can be downloaded from http://mesord.sourceforge.net  Supplementary information: 'MesoRD User's Guide' and other documents are available at http://mesord.sourceforge.net. 1 INTRODUCTION",https://academic.oup.com/bioinformatics/article-abstract/21/12/2923/268044,https://academic.oup.com/bioinformatics/article/21/12/2923/268044,
"['J Xu', 'Y Gao', 'S Christley']",2005,A topological analysis of the open souce software development community,,,"In this paper, we perform a quanti- tative analysis of Open Source Software developers by study- ing the entire development community at SourceForge [26]  Small world phenomenon and scale free behaviors are found in the SourceForge develop- ment network",https://ieeexplore.ieee.org/abstract/document/1385642/,http://www3.nd.edu/~oss/Papers/HICSS38_slides.pdf,
"['K Crowston', 'J Howison']",2005,The social structure of free and open source software development,,,"To address this question, we examined 120 project teams from SourceForge, representing a wide range of FLOSS project types, for their communications centralization as revealed in the interactions in the bug tracking system",http://journals.uic.edu/ojs/index.php/fm/article/view/1207,https://journals.uic.edu/ojs/index.php/fm/article/download/1207/1127,
['D Shen'],2005,Tutorial 1: GNU Radio Installation Guide–Step by Step,,,The USRP CVS tree is hosted on SourceForge. Use these commands to check the usrp module out: $cvs -d:pserver:anonymous@cvs.sourceforge.net:/cvsroot/opensdr login $cvs -z3 -d:pserver:anonymous@cvs.sourceforge.net:/cvsroot/opensdr co -P usrp,https://www.snowymtn.ca/GNURadio/GNURAdioDoc-1.pdf,https://www.snowymtn.ca/GNURadio/GNURAdioDoc-1.pdf,
['M Houston'],2005,General Purpose Computation on Graphics Processors (GPGPU),,,Accelerator – Microsoft Research http://research.microsoft.com/downloads ∎ Brook – Stanford University http://brook.sourceforge.net ∎ CUDA – NVIDIA  Brook for GPUs ∎ Open source - Sourceforge – CVS tree *much* more up to date (includes CTM support) ∎ Project Page,http://graphics.stanford.edu/~mhouston/public_talks/R6XX-GPGPU-mhouston.pdf,http://graphics.stanford.edu/~mhouston/public_talks/R6XX-GPGPU-mhouston.pdf,
"['M Ohira', 'T Ohoka', 'T Kakimoto', 'N Ohsugi']",2005,Supporting knowledge collaboration using social networks in a large-scale online community of software development projects,,,"From our analysis of a large-scale online community— SourceForge.net which has a large number of developers and projects, we have found that SourceForge also exists as a scale-free network  1 The analysis of SourceForge.net was conducted in Feb. 2005",https://ieeexplore.ieee.org/abstract/document/1607229/,https://library.naist.jp:19943/dspace/bitstream/handle/10061/12765/10061_12765.pdf?sequence=1&isAllowed=y,
['V Varveropoulos'],2005,Robot localization and map construction using sonar data,,,Page 1. The Rossum Project – http://rossum.sourceforge.net Poster by Vassilis Varveropoulos Robot Localization and Map Construction Using Sonar Data Page 1 of 10  Vassilis Varveropoulos vassilis@users.sourceforge.net The Rossum Project http://rossum.sourceforge.net,ftp://labattmot.ele.ita.br/ele/jeeves/leitura/Rossum_Localization_Sonar.pdf,ftp://labattmot.ele.ita.br/ele/jeeves/leitura/Rossum_Localization_Sonar.pdf,
['AM Hart'],2005,Hibernate in the classroom,,,the-middle fashion [2]. References. www.hibernate.org Google Scholar Google Scholar; www.hibernate.org/199.html Google Scholar Google Scholar; http://sourceforge.net/projects/nhibernate Google Scholar Google Scholar;,https://dl.acm.org/doi/abs/10.5555/1047846.1047860,,
"['D Mack', 'NV Chawla', 'G Madey']",2005,Activity Mining in Open Source Software,,,"However, we observe that there are a significant number of projects within the Games category that are inactive or have no ranking assigned by Sourceforge  The metric of rankings and the percentile are what SourceForge gives these projects",http://www.academia.edu/download/4573195/10.1.1.69.632.pdf,http://www.academia.edu/download/4573195/10.1.1.69.632.pdf,
"['O Frunza', 'D Inkpen', 'D Nadeau']",2005,A text processing tool for the romanian language,,,1 BALIE is a Java open-source software issued under the GNU General Public License. It is hosted by SourceForge and it is available at http://balie.sourceforge.net  http://balie. sourceforge.net/dnadeau05balie.pdf David D. Palmer and Marti A. Hearst. 1997,http://citeseerx.ist.psu.edu/viewdoc/download?doi=10.1.1.93.9054&rep=rep1&type=pdf,http://citeseerx.ist.psu.edu/viewdoc/download?doi=10.1.1.93.9054&rep=rep1&type=pdf,
"['D Koning', 'IN Sarkar', 'T Moritz']",2005,TaxonGrab: Extracting taxonomic names from text,,,"An implementation of the described method is available as a Web based tool written in PHP. Additionally, the PHP source code is available from SourceForge: http://sourceforge.net/projects/ taxongrab, and the project website is http://research.amnh.org/informatics/taxlit/apps",https://papers.ssrn.com/sol3/papers.cfm?abstract_id=1127762,https://journals.ku.edu/jbi/article/download/17/9,
"['C de Souza', 'J Froehlich']",2005,Seeking the source,,,17 Centralized Directionality is important Project: iReport2 Host: Sourceforge Page 18. 18 Centralized Project: iReport2 Host: Sourceforge  Page 20. 20 Densely Networked Project: Azureus Host: Sourceforge Page 21. 21 Densely Networked Project: Azureus Host: Sourceforge,https://makeabilitylab.cs.washington.edu/media/talks/Froehlich_SeekingTheSource-SoftwareSourceCodeAsASocialAndTechnicalArtifact_GROUP2005.pdf,,
