[
  "Report on the 5th International Web Archiving Workshop (IWAW) | http://www.dlib.org/dlib/november05/aschenbrenner/11aschenbrenner.html",
  "Uncovering Information Hidden in Web Archives: A Glimpse at Web Analysis Building on Data Warehouses | http://www.dlib.org/dlib/december02/rauber/12rauber.html",
  "Functionalities of Web Archiving | http://www.dlib.org/dlib/march12/niu/03niu2.html",
  "ECDL 2002 Workshop Report: Web Archiving | http://www.dlib.org/dlib/october02/10inbrief.html#RAUBER",
  "Facing the Challenge of Web Archives Preservation Collaboratively: The Role and Work of the IIPC Preservation Working Group | http://www.dlib.org/dlib/may15/goethals/05goethals.html",
  "Uncovering Information Hidden in Web Archives | http://www.dlib.org/dlib/december02/rauber/12rauber.html",
  "Web Archiving | http://www.dlib.org/dlib/march12/03editorial.html",
  "Report on the 8th International Workshop on Web Archiving - IWAW 2008 | http://www.dlib.org/dlib/november08/rauber/11rauber.html",
  "Report on the 4th International Web Archiving Workshop (IWAW) | http://www.dlib.org/dlib/november04/masanes/11masanes.html",
  "Report on the 7th International Workshop on Web Archiving (IWAW 2007) | http://www.dlib.org/dlib/september07/rauber/09rauber.html",
  "ECDL 2003 Workshop Report: Web Archives | http://www.dlib.org/dlib/september03/09inbrief.html#VAN_NUYS",
  "Web Archives for Researchers: Representations, Expectations and Potential Uses | http://www.dlib.org/dlib/march12/stirling/03stirling.html",
  "Web Archives Registry Launched | http://www.dlib.org/dlib/january10/01inbrief.html#POTTER",
  "Choosing a Sustainable Web Archiving Method: A Comparison of Capture Quality | http://www.dlib.org/dlib/may13/gray/05gray.html",
  "Cobweb: A Collaborative Collection Development Platform for Web Archives | http://www.dlib.org/dlib/november16/11inbrief.html#ABRAMS",
  "A Year of Selective Web Archiving with the Web Curator Tool at the National Library of New Zealand | http://www.dlib.org/dlib/may08/paynter/05paynter.html",
  "An Overview of Web Archiving | http://www.dlib.org/dlib/march12/niu/03niu1.html",
  "Report on the International Web Archiving Workshop (IWAW) 2009 | http://www.dlib.org/dlib/november09/rauber/11rauber.html",
  "SiteStory Transactional Web Archive Software Released | http://www.dlib.org/dlib/september12/09inbrief.html#VANDESOMPELIB",
  "Towards Continuous Web Archiving | http://www.dlib.org/dlib/december02/masanes/12masanes.html"
]