[
  "Ex Libris Acquires Rights to SFX Reference Linking Software | http://www.dlib.org/dlib/february00/02inbrief.html#BEIT-ARIE",
  "TermMaster: Software for Creating and Maintaining Thesauri and Ontologies | http://www.dlib.org/dlib/september01/09inbrief.html#SOERGEL",
  "National HPCC Software Exchange (NHSE): Uniting the High Performance Computing and Communications Community | http://www.dlib.org/dlib/may98/browne/05browne.html",
  "The Software Preservation Network (SPN): A Community Effort to Ensure Long Term Access to Digital Cultural Heritage | http://www.dlib.org/dlib/may17/meyerson/05meyerson.html",
  "Greenstone: Open-Source Digital Library Software | http://www.dlib.org/dlib/october01/witten/10witten.html",
  "The Gamera Software Development Kit for Document Image Analysis | http://www.dlib.org/dlib/january05/01inbrief.html",
  "The Netlib Mathematical Software Repository | http://www.dlib.org/dlib/september95/netlib/09browne.html",
  "Evaluation of Digital Repository Software at the National Library of Medicine | http://www.dlib.org/dlib/may09/marill/05marill.html",
  "Software Agent-Oriented Frameworks Meet Georeferenced Digital Library Interoperability | http://www.dlib.org/dlib/september97/laval/09laval.html",
  "Using the Audit Checklist for the Certification of a Trusted Digital Repository as a Framework for Evaluating Repository Software Applications: A Progress Report | http://www.dlib.org/dlib/december06/kaczmarek/12kaczmarek.html",
  "XMLMARC Conversion Software Released | http://www.dlib.org/dlib/march00/03inbrief.html#MILLER",
  "ePADD: Computational Analysis Software Facilitating Screening, Browsing, and Access for Historically and Culturally Valuable Email Collections | http://www.dlib.org/dlib/may17/schneider/05schneider.html",
  "Using Open Source Social Software as Digital Library Interface | http://www.dlib.org/dlib/march08/mitchell/03mitchell.html",
  "National HPCC Software Exchange (NHSE) | http://www.dlib.org/dlib/may98/browne/05browne.html",
  "Realizing and Maintaining Aggregative Digital Library Systems: D-NET Software Toolkit and OAIster System | http://www.dlib.org/dlib/march10/manghi/03manghi.html",
  "Software for Building a Full-Featured Discipline-Based Web Portal: The Scout Portal Toolkit | http://www.dlib.org/dlib/november02/almasy/11almasy.html",
  "The Pathways of Research Software Preservation: An Educational and Planning Resource for Service Development | http://www.dlib.org/dlib/july16/rios/07rios.html",
  "Eprints.org Software for Creating Institutional and Individual Open Archives | http://www.dlib.org/dlib/october00/10inbrief.html#HARNAD",
  "Using the Audit Checklist for the Certification of a Trusted Digital Repository as a Framework for Evaluating Repository Software Applications | http://www.dlib.org/dlib/december06/kaczmarek/12kaczmarek.html",
  "SiteStory Transactional Web Archive Software Released | http://www.dlib.org/dlib/september12/09inbrief.html#VANDESOMPELIB",
  " Software Agent-Oriented Frameworks Meet Georeferenced Digital Library Interoperability | http://www.dlib.org/dlib/september97/laval/09laval.html",
  "Software Preservation Network | http://www.dlib.org/dlib/january16/01inbrief.html#MEYERSON",
  "Software for Building a Full-Featured Discipline-Based Web Portal | http://www.dlib.org/dlib/november02/almasy/11almasy.html",
  "Repurposing Open Source Software for Agile Digital Image Library Development | http://www.dlib.org/dlib/september08/uzwyshyn/09uzwyshyn.html",
  "MARC4J Open Source Software | http://www.dlib.org/dlib/november02/11inbrief.html#PETERS"
][
  " Software Agent-Oriented Frameworks Meet Georeferenced Digital Library Interoperability | http://www.dlib.org/dlib/september97/laval/09laval.html",
  "Ex Libris Acquires Rights to SFX Reference Linking Software | http://www.dlib.org/dlib/february00/02inbrief.html#BEIT-ARIE",
  "TermMaster: Software for Creating and Maintaining Thesauri and Ontologies | http://www.dlib.org/dlib/september01/09inbrief.html#SOERGEL",
  "Eprints.org Software for Creating Institutional and Individual Open Archives | http://www.dlib.org/dlib/october00/10inbrief.html#HARNAD",
  "Evaluation of Digital Repository Software at the National Library of Medicine | http://www.dlib.org/dlib/may09/marill/05marill.html",
  "Software for Building a Full-Featured Discipline-Based Web Portal | http://www.dlib.org/dlib/november02/almasy/11almasy.html",
  "The Pathways of Research Software Preservation: An Educational and Planning Resource for Service Development | http://www.dlib.org/dlib/july16/rios/07rios.html",
  "ePADD: Computational Analysis Software Facilitating Screening, Browsing, and Access for Historically and Culturally Valuable Email Collections | http://www.dlib.org/dlib/may17/schneider/05schneider.html",
  "MARC4J Open Source Software | http://www.dlib.org/dlib/november02/11inbrief.html#PETERS",
  "Greenstone: Open-Source Digital Library Software | http://www.dlib.org/dlib/october01/witten/10witten.html",
  "National HPCC Software Exchange (NHSE): Uniting the High Performance Computing and Communications Community | http://www.dlib.org/dlib/may98/browne/05browne.html",
  "The Software Preservation Network (SPN): A Community Effort to Ensure Long Term Access to Digital Cultural Heritage | http://www.dlib.org/dlib/may17/meyerson/05meyerson.html",
  "SiteStory Transactional Web Archive Software Released | http://www.dlib.org/dlib/september12/09inbrief.html#VANDESOMPELIB",
  "Realizing and Maintaining Aggregative Digital Library Systems: D-NET Software Toolkit and OAIster System | http://www.dlib.org/dlib/march10/manghi/03manghi.html",
  "Software Preservation Network | http://www.dlib.org/dlib/january16/01inbrief.html#MEYERSON",
  "Repurposing Open Source Software for Agile Digital Image Library Development | http://www.dlib.org/dlib/september08/uzwyshyn/09uzwyshyn.html",
  "The Netlib Mathematical Software Repository | http://www.dlib.org/dlib/september95/netlib/09browne.html",
  "Using Open Source Social Software as Digital Library Interface | http://www.dlib.org/dlib/march08/mitchell/03mitchell.html",
  "Software for Building a Full-Featured Discipline-Based Web Portal: The Scout Portal Toolkit | http://www.dlib.org/dlib/november02/almasy/11almasy.html",
  "The Gamera Software Development Kit for Document Image Analysis | http://www.dlib.org/dlib/january05/01inbrief.html",
  "Using the Audit Checklist for the Certification of a Trusted Digital Repository as a Framework for Evaluating Repository Software Applications: A Progress Report | http://www.dlib.org/dlib/december06/kaczmarek/12kaczmarek.html",
  "Using the Audit Checklist for the Certification of a Trusted Digital Repository as a Framework for Evaluating Repository Software Applications | http://www.dlib.org/dlib/december06/kaczmarek/12kaczmarek.html",
  "National HPCC Software Exchange (NHSE) | http://www.dlib.org/dlib/may98/browne/05browne.html",
  "Software Agent-Oriented Frameworks Meet Georeferenced Digital Library Interoperability | http://www.dlib.org/dlib/september97/laval/09laval.html",
  "XMLMARC Conversion Software Released | http://www.dlib.org/dlib/march00/03inbrief.html#MILLER"
][
  "Software Preservation Network | http://www.dlib.org/dlib/january16/01inbrief.html#MEYERSON",
  "Realizing and Maintaining Aggregative Digital Library Systems: D-NET Software Toolkit and OAIster System | http://www.dlib.org/dlib/march10/manghi/03manghi.html",
  "The Software Preservation Network (SPN): A Community Effort to Ensure Long Term Access to Digital Cultural Heritage | http://www.dlib.org/dlib/may17/meyerson/05meyerson.html",
  "National HPCC Software Exchange (NHSE): Uniting the High Performance Computing and Communications Community | http://www.dlib.org/dlib/may98/browne/05browne.html",
  "Ex Libris Acquires Rights to SFX Reference Linking Software | http://www.dlib.org/dlib/february00/02inbrief.html#BEIT-ARIE",
  "Using the Audit Checklist for the Certification of a Trusted Digital Repository as a Framework for Evaluating Repository Software Applications | http://www.dlib.org/dlib/december06/kaczmarek/12kaczmarek.html",
  "Software for Building a Full-Featured Discipline-Based Web Portal: The Scout Portal Toolkit | http://www.dlib.org/dlib/november02/almasy/11almasy.html",
  "XMLMARC Conversion Software Released | http://www.dlib.org/dlib/march00/03inbrief.html#MILLER",
  "Greenstone: Open-Source Digital Library Software | http://www.dlib.org/dlib/october01/witten/10witten.html",
  "Using Open Source Social Software as Digital Library Interface | http://www.dlib.org/dlib/march08/mitchell/03mitchell.html",
  "The Pathways of Research Software Preservation: An Educational and Planning Resource for Service Development | http://www.dlib.org/dlib/july16/rios/07rios.html",
  "Repurposing Open Source Software for Agile Digital Image Library Development | http://www.dlib.org/dlib/september08/uzwyshyn/09uzwyshyn.html",
  "Evaluation of Digital Repository Software at the National Library of Medicine | http://www.dlib.org/dlib/may09/marill/05marill.html",
  "ePADD: Computational Analysis Software Facilitating Screening, Browsing, and Access for Historically and Culturally Valuable Email Collections | http://www.dlib.org/dlib/may17/schneider/05schneider.html",
  "Software Agent-Oriented Frameworks Meet Georeferenced Digital Library Interoperability | http://www.dlib.org/dlib/september97/laval/09laval.html",
  "The Gamera Software Development Kit for Document Image Analysis | http://www.dlib.org/dlib/january05/01inbrief.html",
  "SiteStory Transactional Web Archive Software Released | http://www.dlib.org/dlib/september12/09inbrief.html#VANDESOMPELIB",
  "The Netlib Mathematical Software Repository | http://www.dlib.org/dlib/september95/netlib/09browne.html",
  " Software Agent-Oriented Frameworks Meet Georeferenced Digital Library Interoperability | http://www.dlib.org/dlib/september97/laval/09laval.html",
  "Software for Building a Full-Featured Discipline-Based Web Portal | http://www.dlib.org/dlib/november02/almasy/11almasy.html",
  "MARC4J Open Source Software | http://www.dlib.org/dlib/november02/11inbrief.html#PETERS",
  "Eprints.org Software for Creating Institutional and Individual Open Archives | http://www.dlib.org/dlib/october00/10inbrief.html#HARNAD",
  "TermMaster: Software for Creating and Maintaining Thesauri and Ontologies | http://www.dlib.org/dlib/september01/09inbrief.html#SOERGEL",
  "Using the Audit Checklist for the Certification of a Trusted Digital Repository as a Framework for Evaluating Repository Software Applications: A Progress Report | http://www.dlib.org/dlib/december06/kaczmarek/12kaczmarek.html",
  "National HPCC Software Exchange (NHSE) | http://www.dlib.org/dlib/may98/browne/05browne.html"
]